^F:\DEV\VISUAL STUDIO\PROJECTS\CS370\GIT_PROJECT_370\SLIDE2\GAME_ENGINE\GAME_ENGINE\GAME_ENGINE\LABYRINTH\ARTIFACT.CPP
/c /I"F:\DEV\VISUAL STUDIO\PROJECTS\CS370\GIT_PROJECT_370\SLIDE2\GAME_ENGINE\GAME_ENGINE\DEPENDS\INCLUDE" /Zi /nologo /W3 /WX- /diagnostics:classic /sdl /O2 /Oi /GL /D SDL_MAIN_HANDLED /D _MBCS /Gm- /EHsc /MD /GS /Gy /fp:precise /Zc:wchar_t /Zc:forScope /Zc:inline /FAs /Fa"F:\DEV\VISUAL STUDIO\PROJECTS\CS370\GIT_PROJECT_370\SLIDE2\GAME_ENGINE\GAME_ENGINE\BIN\INTERMEDIATES\X64\RELEASE\\" /Fo"F:\DEV\VISUAL STUDIO\PROJECTS\CS370\GIT_PROJECT_370\SLIDE2\GAME_ENGINE\GAME_ENGINE\BIN\INTERMEDIATES\X64\RELEASE\\" /Fd"F:\DEV\VISUAL STUDIO\PROJECTS\CS370\GIT_PROJECT_370\SLIDE2\GAME_ENGINE\GAME_ENGINE\BIN\INTERMEDIATES\X64\RELEASE\VC141.PDB" /Gd /TP F:\DEV\VISUAL STUDIO\PROJECTS\CS370\GIT_PROJECT_370\SLIDE2\GAME_ENGINE\GAME_ENGINE\GAME_ENGINE\LABYRINTH\ARTIFACT.CPP
^F:\DEV\VISUAL STUDIO\PROJECTS\CS370\GIT_PROJECT_370\SLIDE2\GAME_ENGINE\GAME_ENGINE\GAME_ENGINE\LABYRINTH\BOARD.CPP
/c /I"F:\DEV\VISUAL STUDIO\PROJECTS\CS370\GIT_PROJECT_370\SLIDE2\GAME_ENGINE\GAME_ENGINE\DEPENDS\INCLUDE" /Zi /nologo /W3 /WX- /diagnostics:classic /sdl /O2 /Oi /GL /D SDL_MAIN_HANDLED /D _MBCS /Gm- /EHsc /MD /GS /Gy /fp:precise /Zc:wchar_t /Zc:forScope /Zc:inline /FAs /Fa"F:\DEV\VISUAL STUDIO\PROJECTS\CS370\GIT_PROJECT_370\SLIDE2\GAME_ENGINE\GAME_ENGINE\BIN\INTERMEDIATES\X64\RELEASE\\" /Fo"F:\DEV\VISUAL STUDIO\PROJECTS\CS370\GIT_PROJECT_370\SLIDE2\GAME_ENGINE\GAME_ENGINE\BIN\INTERMEDIATES\X64\RELEASE\\" /Fd"F:\DEV\VISUAL STUDIO\PROJECTS\CS370\GIT_PROJECT_370\SLIDE2\GAME_ENGINE\GAME_ENGINE\BIN\INTERMEDIATES\X64\RELEASE\VC141.PDB" /Gd /TP F:\DEV\VISUAL STUDIO\PROJECTS\CS370\GIT_PROJECT_370\SLIDE2\GAME_ENGINE\GAME_ENGINE\GAME_ENGINE\LABYRINTH\BOARD.CPP
^F:\DEV\VISUAL STUDIO\PROJECTS\CS370\GIT_PROJECT_370\SLIDE2\GAME_ENGINE\GAME_ENGINE\GAME_ENGINE\LABYRINTH\BUTTON.CPP
/c /I"F:\DEV\VISUAL STUDIO\PROJECTS\CS370\GIT_PROJECT_370\SLIDE2\GAME_ENGINE\GAME_ENGINE\DEPENDS\INCLUDE" /Zi /nologo /W3 /WX- /diagnostics:classic /sdl /O2 /Oi /GL /D SDL_MAIN_HANDLED /D _MBCS /Gm- /EHsc /MD /GS /Gy /fp:precise /Zc:wchar_t /Zc:forScope /Zc:inline /FAs /Fa"F:\DEV\VISUAL STUDIO\PROJECTS\CS370\GIT_PROJECT_370\SLIDE2\GAME_ENGINE\GAME_ENGINE\BIN\INTERMEDIATES\X64\RELEASE\\" /Fo"F:\DEV\VISUAL STUDIO\PROJECTS\CS370\GIT_PROJECT_370\SLIDE2\GAME_ENGINE\GAME_ENGINE\BIN\INTERMEDIATES\X64\RELEASE\\" /Fd"F:\DEV\VISUAL STUDIO\PROJECTS\CS370\GIT_PROJECT_370\SLIDE2\GAME_ENGINE\GAME_ENGINE\BIN\INTERMEDIATES\X64\RELEASE\VC141.PDB" /Gd /TP F:\DEV\VISUAL STUDIO\PROJECTS\CS370\GIT_PROJECT_370\SLIDE2\GAME_ENGINE\GAME_ENGINE\GAME_ENGINE\LABYRINTH\BUTTON.CPP
^F:\DEV\VISUAL STUDIO\PROJECTS\CS370\GIT_PROJECT_370\SLIDE2\GAME_ENGINE\GAME_ENGINE\GAME_ENGINE\LABYRINTH\PLAYER.CPP
/c /I"F:\DEV\VISUAL STUDIO\PROJECTS\CS370\GIT_PROJECT_370\SLIDE2\GAME_ENGINE\GAME_ENGINE\DEPENDS\INCLUDE" /Zi /nologo /W3 /WX- /diagnostics:classic /sdl /O2 /Oi /GL /D SDL_MAIN_HANDLED /D _MBCS /Gm- /EHsc /MD /GS /Gy /fp:precise /Zc:wchar_t /Zc:forScope /Zc:inline /FAs /Fa"F:\DEV\VISUAL STUDIO\PROJECTS\CS370\GIT_PROJECT_370\SLIDE2\GAME_ENGINE\GAME_ENGINE\BIN\INTERMEDIATES\X64\RELEASE\\" /Fo"F:\DEV\VISUAL STUDIO\PROJECTS\CS370\GIT_PROJECT_370\SLIDE2\GAME_ENGINE\GAME_ENGINE\BIN\INTERMEDIATES\X64\RELEASE\\" /Fd"F:\DEV\VISUAL STUDIO\PROJECTS\CS370\GIT_PROJECT_370\SLIDE2\GAME_ENGINE\GAME_ENGINE\BIN\INTERMEDIATES\X64\RELEASE\VC141.PDB" /Gd /TP F:\DEV\VISUAL STUDIO\PROJECTS\CS370\GIT_PROJECT_370\SLIDE2\GAME_ENGINE\GAME_ENGINE\GAME_ENGINE\LABYRINTH\PLAYER.CPP
^F:\DEV\VISUAL STUDIO\PROJECTS\CS370\GIT_PROJECT_370\SLIDE2\GAME_ENGINE\GAME_ENGINE\GAME_ENGINE\LABYRINTH\SLIDER.CPP
/c /I"F:\DEV\VISUAL STUDIO\PROJECTS\CS370\GIT_PROJECT_370\SLIDE2\GAME_ENGINE\GAME_ENGINE\DEPENDS\INCLUDE" /Zi /nologo /W3 /WX- /diagnostics:classic /sdl /O2 /Oi /GL /D SDL_MAIN_HANDLED /D _MBCS /Gm- /EHsc /MD /GS /Gy /fp:precise /Zc:wchar_t /Zc:forScope /Zc:inline /FAs /Fa"F:\DEV\VISUAL STUDIO\PROJECTS\CS370\GIT_PROJECT_370\SLIDE2\GAME_ENGINE\GAME_ENGINE\BIN\INTERMEDIATES\X64\RELEASE\\" /Fo"F:\DEV\VISUAL STUDIO\PROJECTS\CS370\GIT_PROJECT_370\SLIDE2\GAME_ENGINE\GAME_ENGINE\BIN\INTERMEDIATES\X64\RELEASE\\" /Fd"F:\DEV\VISUAL STUDIO\PROJECTS\CS370\GIT_PROJECT_370\SLIDE2\GAME_ENGINE\GAME_ENGINE\BIN\INTERMEDIATES\X64\RELEASE\VC141.PDB" /Gd /TP F:\DEV\VISUAL STUDIO\PROJECTS\CS370\GIT_PROJECT_370\SLIDE2\GAME_ENGINE\GAME_ENGINE\GAME_ENGINE\LABYRINTH\SLIDER.CPP
^F:\DEV\VISUAL STUDIO\PROJECTS\CS370\GIT_PROJECT_370\SLIDE2\GAME_ENGINE\GAME_ENGINE\GAME_ENGINE\LABYRINTH\TILE.CPP
/c /I"F:\DEV\VISUAL STUDIO\PROJECTS\CS370\GIT_PROJECT_370\SLIDE2\GAME_ENGINE\GAME_ENGINE\DEPENDS\INCLUDE" /Zi /nologo /W3 /WX- /diagnostics:classic /sdl /O2 /Oi /GL /D SDL_MAIN_HANDLED /D _MBCS /Gm- /EHsc /MD /GS /Gy /fp:precise /Zc:wchar_t /Zc:forScope /Zc:inline /FAs /Fa"F:\DEV\VISUAL STUDIO\PROJECTS\CS370\GIT_PROJECT_370\SLIDE2\GAME_ENGINE\GAME_ENGINE\BIN\INTERMEDIATES\X64\RELEASE\\" /Fo"F:\DEV\VISUAL STUDIO\PROJECTS\CS370\GIT_PROJECT_370\SLIDE2\GAME_ENGINE\GAME_ENGINE\BIN\INTERMEDIATES\X64\RELEASE\\" /Fd"F:\DEV\VISUAL STUDIO\PROJECTS\CS370\GIT_PROJECT_370\SLIDE2\GAME_ENGINE\GAME_ENGINE\BIN\INTERMEDIATES\X64\RELEASE\VC141.PDB" /Gd /TP F:\DEV\VISUAL STUDIO\PROJECTS\CS370\GIT_PROJECT_370\SLIDE2\GAME_ENGINE\GAME_ENGINE\GAME_ENGINE\LABYRINTH\TILE.CPP
^F:\DEV\VISUAL STUDIO\PROJECTS\CS370\GIT_PROJECT_370\SLIDE2\GAME_ENGINE\GAME_ENGINE\GAME_ENGINE\MAIN.CPP
/c /I"F:\DEV\VISUAL STUDIO\PROJECTS\CS370\GIT_PROJECT_370\SLIDE2\GAME_ENGINE\GAME_ENGINE\DEPENDS\INCLUDE" /Zi /nologo /W3 /WX- /diagnostics:classic /sdl /O2 /Oi /GL /D SDL_MAIN_HANDLED /D _MBCS /Gm- /EHsc /MD /GS /Gy /fp:precise /Zc:wchar_t /Zc:forScope /Zc:inline /FAs /Fa"F:\DEV\VISUAL STUDIO\PROJECTS\CS370\GIT_PROJECT_370\SLIDE2\GAME_ENGINE\GAME_ENGINE\BIN\INTERMEDIATES\X64\RELEASE\\" /Fo"F:\DEV\VISUAL STUDIO\PROJECTS\CS370\GIT_PROJECT_370\SLIDE2\GAME_ENGINE\GAME_ENGINE\BIN\INTERMEDIATES\X64\RELEASE\\" /Fd"F:\DEV\VISUAL STUDIO\PROJECTS\CS370\GIT_PROJECT_370\SLIDE2\GAME_ENGINE\GAME_ENGINE\BIN\INTERMEDIATES\X64\RELEASE\VC141.PDB" /Gd /TP F:\DEV\VISUAL STUDIO\PROJECTS\CS370\GIT_PROJECT_370\SLIDE2\GAME_ENGINE\GAME_ENGINE\GAME_ENGINE\MAIN.CPP
^F:\DEV\VISUAL STUDIO\PROJECTS\CS370\GIT_PROJECT_370\SLIDE2\GAME_ENGINE\GAME_ENGINE\GAME_ENGINE\SRC\GRAPHICS\RENDERER.CPP
/c /I"F:\DEV\VISUAL STUDIO\PROJECTS\CS370\GIT_PROJECT_370\SLIDE2\GAME_ENGINE\GAME_ENGINE\DEPENDS\INCLUDE" /Zi /nologo /W3 /WX- /diagnostics:classic /sdl /O2 /Oi /GL /D SDL_MAIN_HANDLED /D _MBCS /Gm- /EHsc /MD /GS /Gy /fp:precise /Zc:wchar_t /Zc:forScope /Zc:inline /FAs /Fa"F:\DEV\VISUAL STUDIO\PROJECTS\CS370\GIT_PROJECT_370\SLIDE2\GAME_ENGINE\GAME_ENGINE\BIN\INTERMEDIATES\X64\RELEASE\\" /Fo"F:\DEV\VISUAL STUDIO\PROJECTS\CS370\GIT_PROJECT_370\SLIDE2\GAME_ENGINE\GAME_ENGINE\BIN\INTERMEDIATES\X64\RELEASE\\" /Fd"F:\DEV\VISUAL STUDIO\PROJECTS\CS370\GIT_PROJECT_370\SLIDE2\GAME_ENGINE\GAME_ENGINE\BIN\INTERMEDIATES\X64\RELEASE\VC141.PDB" /Gd /TP F:\DEV\VISUAL STUDIO\PROJECTS\CS370\GIT_PROJECT_370\SLIDE2\GAME_ENGINE\GAME_ENGINE\GAME_ENGINE\SRC\GRAPHICS\RENDERER.CPP
^F:\DEV\VISUAL STUDIO\PROJECTS\CS370\GIT_PROJECT_370\SLIDE2\GAME_ENGINE\GAME_ENGINE\GAME_ENGINE\SRC\GRAPHICS\SPRITE.CPP
/c /I"F:\DEV\VISUAL STUDIO\PROJECTS\CS370\GIT_PROJECT_370\SLIDE2\GAME_ENGINE\GAME_ENGINE\DEPENDS\INCLUDE" /Zi /nologo /W3 /WX- /diagnostics:classic /sdl /O2 /Oi /GL /D SDL_MAIN_HANDLED /D _MBCS /Gm- /EHsc /MD /GS /Gy /fp:precise /Zc:wchar_t /Zc:forScope /Zc:inline /FAs /Fa"F:\DEV\VISUAL STUDIO\PROJECTS\CS370\GIT_PROJECT_370\SLIDE2\GAME_ENGINE\GAME_ENGINE\BIN\INTERMEDIATES\X64\RELEASE\\" /Fo"F:\DEV\VISUAL STUDIO\PROJECTS\CS370\GIT_PROJECT_370\SLIDE2\GAME_ENGINE\GAME_ENGINE\BIN\INTERMEDIATES\X64\RELEASE\\" /Fd"F:\DEV\VISUAL STUDIO\PROJECTS\CS370\GIT_PROJECT_370\SLIDE2\GAME_ENGINE\GAME_ENGINE\BIN\INTERMEDIATES\X64\RELEASE\VC141.PDB" /Gd /TP F:\DEV\VISUAL STUDIO\PROJECTS\CS370\GIT_PROJECT_370\SLIDE2\GAME_ENGINE\GAME_ENGINE\GAME_ENGINE\SRC\GRAPHICS\SPRITE.CPP
^F:\DEV\VISUAL STUDIO\PROJECTS\CS370\GIT_PROJECT_370\SLIDE2\GAME_ENGINE\GAME_ENGINE\GAME_ENGINE\SRC\GRAPHICS\WINDOW.CPP
/c /I"F:\DEV\VISUAL STUDIO\PROJECTS\CS370\GIT_PROJECT_370\SLIDE2\GAME_ENGINE\GAME_ENGINE\DEPENDS\INCLUDE" /Zi /nologo /W3 /WX- /diagnostics:classic /sdl /O2 /Oi /GL /D SDL_MAIN_HANDLED /D _MBCS /Gm- /EHsc /MD /GS /Gy /fp:precise /Zc:wchar_t /Zc:forScope /Zc:inline /FAs /Fa"F:\DEV\VISUAL STUDIO\PROJECTS\CS370\GIT_PROJECT_370\SLIDE2\GAME_ENGINE\GAME_ENGINE\BIN\INTERMEDIATES\X64\RELEASE\\" /Fo"F:\DEV\VISUAL STUDIO\PROJECTS\CS370\GIT_PROJECT_370\SLIDE2\GAME_ENGINE\GAME_ENGINE\BIN\INTERMEDIATES\X64\RELEASE\\" /Fd"F:\DEV\VISUAL STUDIO\PROJECTS\CS370\GIT_PROJECT_370\SLIDE2\GAME_ENGINE\GAME_ENGINE\BIN\INTERMEDIATES\X64\RELEASE\VC141.PDB" /Gd /TP F:\DEV\VISUAL STUDIO\PROJECTS\CS370\GIT_PROJECT_370\SLIDE2\GAME_ENGINE\GAME_ENGINE\GAME_ENGINE\SRC\GRAPHICS\WINDOW.CPP
^F:\DEV\VISUAL STUDIO\PROJECTS\CS370\GIT_PROJECT_370\SLIDE2\GAME_ENGINE\GAME_ENGINE\GAME_ENGINE\SRC\INTERACTABLES\INTERACTABLE.CPP
/c /I"F:\DEV\VISUAL STUDIO\PROJECTS\CS370\GIT_PROJECT_370\SLIDE2\GAME_ENGINE\GAME_ENGINE\DEPENDS\INCLUDE" /Zi /nologo /W3 /WX- /diagnostics:classic /sdl /O2 /Oi /GL /D SDL_MAIN_HANDLED /D _MBCS /Gm- /EHsc /MD /GS /Gy /fp:precise /Zc:wchar_t /Zc:forScope /Zc:inline /FAs /Fa"F:\DEV\VISUAL STUDIO\PROJECTS\CS370\GIT_PROJECT_370\SLIDE2\GAME_ENGINE\GAME_ENGINE\BIN\INTERMEDIATES\X64\RELEASE\\" /Fo"F:\DEV\VISUAL STUDIO\PROJECTS\CS370\GIT_PROJECT_370\SLIDE2\GAME_ENGINE\GAME_ENGINE\BIN\INTERMEDIATES\X64\RELEASE\\" /Fd"F:\DEV\VISUAL STUDIO\PROJECTS\CS370\GIT_PROJECT_370\SLIDE2\GAME_ENGINE\GAME_ENGINE\BIN\INTERMEDIATES\X64\RELEASE\VC141.PDB" /Gd /TP F:\DEV\VISUAL STUDIO\PROJECTS\CS370\GIT_PROJECT_370\SLIDE2\GAME_ENGINE\GAME_ENGINE\GAME_ENGINE\SRC\INTERACTABLES\INTERACTABLE.CPP
^F:\DEV\VISUAL STUDIO\PROJECTS\CS370\GIT_PROJECT_370\SLIDE2\GAME_ENGINE\GAME_ENGINE\GAME_ENGINE\SRC\MATH\MAT4.CPP
/c /I"F:\DEV\VISUAL STUDIO\PROJECTS\CS370\GIT_PROJECT_370\SLIDE2\GAME_ENGINE\GAME_ENGINE\DEPENDS\INCLUDE" /Zi /nologo /W3 /WX- /diagnostics:classic /sdl /O2 /Oi /GL /D SDL_MAIN_HANDLED /D _MBCS /Gm- /EHsc /MD /GS /Gy /fp:precise /Zc:wchar_t /Zc:forScope /Zc:inline /FAs /Fa"F:\DEV\VISUAL STUDIO\PROJECTS\CS370\GIT_PROJECT_370\SLIDE2\GAME_ENGINE\GAME_ENGINE\BIN\INTERMEDIATES\X64\RELEASE\\" /Fo"F:\DEV\VISUAL STUDIO\PROJECTS\CS370\GIT_PROJECT_370\SLIDE2\GAME_ENGINE\GAME_ENGINE\BIN\INTERMEDIATES\X64\RELEASE\\" /Fd"F:\DEV\VISUAL STUDIO\PROJECTS\CS370\GIT_PROJECT_370\SLIDE2\GAME_ENGINE\GAME_ENGINE\BIN\INTERMEDIATES\X64\RELEASE\VC141.PDB" /Gd /TP F:\DEV\VISUAL STUDIO\PROJECTS\CS370\GIT_PROJECT_370\SLIDE2\GAME_ENGINE\GAME_ENGINE\GAME_ENGINE\SRC\MATH\MAT4.CPP
^F:\DEV\VISUAL STUDIO\PROJECTS\CS370\GIT_PROJECT_370\SLIDE2\GAME_ENGINE\GAME_ENGINE\GAME_ENGINE\SRC\MATH\VEC2.CPP
/c /I"F:\DEV\VISUAL STUDIO\PROJECTS\CS370\GIT_PROJECT_370\SLIDE2\GAME_ENGINE\GAME_ENGINE\DEPENDS\INCLUDE" /Zi /nologo /W3 /WX- /diagnostics:classic /sdl /O2 /Oi /GL /D SDL_MAIN_HANDLED /D _MBCS /Gm- /EHsc /MD /GS /Gy /fp:precise /Zc:wchar_t /Zc:forScope /Zc:inline /FAs /Fa"F:\DEV\VISUAL STUDIO\PROJECTS\CS370\GIT_PROJECT_370\SLIDE2\GAME_ENGINE\GAME_ENGINE\BIN\INTERMEDIATES\X64\RELEASE\\" /Fo"F:\DEV\VISUAL STUDIO\PROJECTS\CS370\GIT_PROJECT_370\SLIDE2\GAME_ENGINE\GAME_ENGINE\BIN\INTERMEDIATES\X64\RELEASE\\" /Fd"F:\DEV\VISUAL STUDIO\PROJECTS\CS370\GIT_PROJECT_370\SLIDE2\GAME_ENGINE\GAME_ENGINE\BIN\INTERMEDIATES\X64\RELEASE\VC141.PDB" /Gd /TP F:\DEV\VISUAL STUDIO\PROJECTS\CS370\GIT_PROJECT_370\SLIDE2\GAME_ENGINE\GAME_ENGINE\GAME_ENGINE\SRC\MATH\VEC2.CPP
^F:\DEV\VISUAL STUDIO\PROJECTS\CS370\GIT_PROJECT_370\SLIDE2\GAME_ENGINE\GAME_ENGINE\GAME_ENGINE\SRC\MATH\VEC3.CPP
/c /I"F:\DEV\VISUAL STUDIO\PROJECTS\CS370\GIT_PROJECT_370\SLIDE2\GAME_ENGINE\GAME_ENGINE\DEPENDS\INCLUDE" /Zi /nologo /W3 /WX- /diagnostics:classic /sdl /O2 /Oi /GL /D SDL_MAIN_HANDLED /D _MBCS /Gm- /EHsc /MD /GS /Gy /fp:precise /Zc:wchar_t /Zc:forScope /Zc:inline /FAs /Fa"F:\DEV\VISUAL STUDIO\PROJECTS\CS370\GIT_PROJECT_370\SLIDE2\GAME_ENGINE\GAME_ENGINE\BIN\INTERMEDIATES\X64\RELEASE\\" /Fo"F:\DEV\VISUAL STUDIO\PROJECTS\CS370\GIT_PROJECT_370\SLIDE2\GAME_ENGINE\GAME_ENGINE\BIN\INTERMEDIATES\X64\RELEASE\\" /Fd"F:\DEV\VISUAL STUDIO\PROJECTS\CS370\GIT_PROJECT_370\SLIDE2\GAME_ENGINE\GAME_ENGINE\BIN\INTERMEDIATES\X64\RELEASE\VC141.PDB" /Gd /TP F:\DEV\VISUAL STUDIO\PROJECTS\CS370\GIT_PROJECT_370\SLIDE2\GAME_ENGINE\GAME_ENGINE\GAME_ENGINE\SRC\MATH\VEC3.CPP
^F:\DEV\VISUAL STUDIO\PROJECTS\CS370\GIT_PROJECT_370\SLIDE2\GAME_ENGINE\GAME_ENGINE\GAME_ENGINE\SRC\MATH\VEC4.CPP
/c /I"F:\DEV\VISUAL STUDIO\PROJECTS\CS370\GIT_PROJECT_370\SLIDE2\GAME_ENGINE\GAME_ENGINE\DEPENDS\INCLUDE" /Zi /nologo /W3 /WX- /diagnostics:classic /sdl /O2 /Oi /GL /D SDL_MAIN_HANDLED /D _MBCS /Gm- /EHsc /MD /GS /Gy /fp:precise /Zc:wchar_t /Zc:forScope /Zc:inline /FAs /Fa"F:\DEV\VISUAL STUDIO\PROJECTS\CS370\GIT_PROJECT_370\SLIDE2\GAME_ENGINE\GAME_ENGINE\BIN\INTERMEDIATES\X64\RELEASE\\" /Fo"F:\DEV\VISUAL STUDIO\PROJECTS\CS370\GIT_PROJECT_370\SLIDE2\GAME_ENGINE\GAME_ENGINE\BIN\INTERMEDIATES\X64\RELEASE\\" /Fd"F:\DEV\VISUAL STUDIO\PROJECTS\CS370\GIT_PROJECT_370\SLIDE2\GAME_ENGINE\GAME_ENGINE\BIN\INTERMEDIATES\X64\RELEASE\VC141.PDB" /Gd /TP F:\DEV\VISUAL STUDIO\PROJECTS\CS370\GIT_PROJECT_370\SLIDE2\GAME_ENGINE\GAME_ENGINE\GAME_ENGINE\SRC\MATH\VEC4.CPP
^F:\DEV\VISUAL STUDIO\PROJECTS\CS370\GIT_PROJECT_370\SLIDE2\GAME_ENGINE\GAME_ENGINE\GAME_ENGINE\SRC\SOUND\AUDIO.CPP
/c /I"F:\DEV\VISUAL STUDIO\PROJECTS\CS370\GIT_PROJECT_370\SLIDE2\GAME_ENGINE\GAME_ENGINE\DEPENDS\INCLUDE" /Zi /nologo /W3 /WX- /diagnostics:classic /sdl /O2 /Oi /GL /D SDL_MAIN_HANDLED /D _MBCS /Gm- /EHsc /MD /GS /Gy /fp:precise /Zc:wchar_t /Zc:forScope /Zc:inline /FAs /Fa"F:\DEV\VISUAL STUDIO\PROJECTS\CS370\GIT_PROJECT_370\SLIDE2\GAME_ENGINE\GAME_ENGINE\BIN\INTERMEDIATES\X64\RELEASE\\" /Fo"F:\DEV\VISUAL STUDIO\PROJECTS\CS370\GIT_PROJECT_370\SLIDE2\GAME_ENGINE\GAME_ENGINE\BIN\INTERMEDIATES\X64\RELEASE\\" /Fd"F:\DEV\VISUAL STUDIO\PROJECTS\CS370\GIT_PROJECT_370\SLIDE2\GAME_ENGINE\GAME_ENGINE\BIN\INTERMEDIATES\X64\RELEASE\VC141.PDB" /Gd /TP F:\DEV\VISUAL STUDIO\PROJECTS\CS370\GIT_PROJECT_370\SLIDE2\GAME_ENGINE\GAME_ENGINE\GAME_ENGINE\SRC\SOUND\AUDIO.CPP
